Paradigmas de Programación
…
### Agregar una columna nueva llamada Company Type, la cual llenaremos con el valor PUBLIC, y se refiere a que todas las compañias en el dataset son publicas. 
global_companies$Company_Type<- 'PUBLIC'

### Agregar una columna nueva llamada MarketCap (Capitalizacion de Mercado), que es el producto de currentPrice y SharesOutstanding
global_companies$marketCap<- global_companies$currentPrice * global_companies$sharesOutstanding
global_companies<- mutate(global_companies, marketCap = currentPrice * sharesOutstanding)

5) Sumarizar datos

La última de las transformaciones que revisaremos está relacionada a sumarizar y agrupar datos. Esta función es una de las más importantes para exploración de datos.

### Obtener numero de Compańias por Industria
count(global_companies, Industry)

## # A tibble: 183 x 2
##    Industry                                  n
##    <fct>                                 <int>
##  1 Advertising Agencies                     23
##  2 Aerospace & Defense                     114
##  3 Aerospace/Defense - Major Diversified     3
##  4 Aerospace/Defense Products & Services     1
##  5 Agricultural Inputs                      44
##  6 Air Services, Other                       2
##  7 Airlines                                 67
##  8 Airports & Air Services                  27
##  9 Aluminum                                 18
## 10 Apparel Manufacturing                    83
## # ... with 173 more rows
…
