Análisis de Texto
…
suppressMessages(library(tibble))
suppressMessages(library(tidytext))
suppressMessages(library(dplyr))
suppressMessages(library(data.table))
 
x <- tribble(
  ~key, ~val_x,
     1, "Las acciones se derrumbaron esta mañana, pese a la baja en las tasas de interés por parte de la Reserva Federal"
)

unigram<- unnest_tokens(x, unigram, val_x, token = "ngrams", n = 1)
print(unigram)

## # A tibble: 21 x 2
##      key unigram    
##    <dbl> <chr>      
##  1     1 las        
##  2     1 acciones   
##  3     1 se         
##  4     1 derrumbaron
##  5     1 esta       
##  6     1 mañana     
##  7     1 pese       
##  8     1 a          
##  9     1 la         
## 10     1 baja       
## # ... with 11 more rows
…
